# Fdb version 3
["pdflatex"] 1625656513 "mwe.tex" "mwe.pdf" "mwe" 1625656513
  "/home/felix/.texlive2017/texmf-var/luatex-cache/generic/fonts/otl/lmroman10-regular.luc" 1625563173 134912 5829abcda3191bbf48c59e24eb778827 ""
  "/home/felix/.texlive2017/texmf-var/luatex-cache/generic/fonts/otl/lmsans10-regular.luc" 1625563173 135371 c14d2907bbc4fecd5672710b952e6639 ""
  "/home/felix/.texlive2017/texmf-var/luatex-cache/generic/fonts/otl/lmsans12-regular.luc" 1625564271 135626 50a93211c0030f62c1dc28a1770fcb0d ""
  "/home/felix/.texlive2017/texmf-var/luatex-cache/generic/fonts/otl/lmsans8-regular.luc" 1625564271 135473 f7a11e561dd1b046a375780937b898fc ""
  "/usr/share/texlive/texmf-dist/scripts/oberdiek/oberdiek.luatex.lua" 1480098773 1972 1fb7c07d88e23d4594015b8b0aa21544 ""
  "/usr/share/texlive/texmf-dist/tex/context/base/mkii/supp-pdf.mkii" 1480098806 71627 94eb9990bed73c364d7f53f960cc8c5b ""
  "/usr/share/texlive/texmf-dist/tex/generic/ifxetex/ifxetex.sty" 1480098815 1458 43ab4710dc82f3edeabecd0d099626b2 ""
  "/usr/share/texlive/texmf-dist/tex/generic/oberdiek/atbegshi.sty" 1480098815 24580 144573175d90c8e36676f97ae1d11ec2 ""
  "/usr/share/texlive/texmf-dist/tex/generic/oberdiek/gettitlestring.sty" 1480098815 8237 3b62ef1f7e2c23a328c814b3893bc11f ""
  "/usr/share/texlive/texmf-dist/tex/generic/oberdiek/hobsub-generic.sty" 1517006633 185082 6c11d4e30ed78e2a12957b7e77030856 ""
  "/usr/share/texlive/texmf-dist/tex/generic/oberdiek/hobsub-hyperref.sty" 1480098815 70864 bcd5b216757bd619ae692a151d90085d ""
  "/usr/share/texlive/texmf-dist/tex/generic/oberdiek/ifpdf.sty" 1490564930 1251 d170e11a3246c3392bc7f59595af42cb ""
  "/usr/share/texlive/texmf-dist/tex/generic/oberdiek/ifvtex.sty" 1480098815 6797 90b7f83b0ad46826bc16058b1e3d48df ""
  "/usr/share/texlive/texmf-dist/tex/generic/oberdiek/infwarerr.sty" 1480098815 8253 473e0e41f9adadb1977e8631b8f72ea6 ""
  "/usr/share/texlive/texmf-dist/tex/generic/oberdiek/ltxcmds.sty" 1480098815 18425 5b3c0c59d76fac78978b5558e83c1f36 ""
  "/usr/share/texlive/texmf-dist/tex/generic/pgf/basiclayer/pgfcore.code.tex" 1480098816 1006 b103be0bfc8c1682ff1fa9760697a329 ""
  "/usr/share/texlive/texmf-dist/tex/generic/pgf/basiclayer/pgfcorearrows.code.tex" 1480098816 43226 167a99346bfe2676e3efcdde2d81fe45 ""
  "/usr/share/texlive/texmf-dist/tex/generic/pgf/basiclayer/pgfcoreexternal.code.tex" 1480098816 19302 4f089dc590e71f7331e6d5b5ea85273b ""
  "/usr/share/texlive/texmf-dist/tex/generic/pgf/basiclayer/pgfcoregraphicstate.code.tex" 1480098816 6068 edae1e768a7d8d8f0f00e953d2b0153e ""
  "/usr/share/texlive/texmf-dist/tex/generic/pgf/basiclayer/pgfcoreimage.code.tex" 1480098816 7041 a891ad72049e17c4e366c40ca37b0ccb ""
  "/usr/share/texlive/texmf-dist/tex/generic/pgf/basiclayer/pgfcorelayers.code.tex" 1480098816 4625 40c07e9f6f2f7c674704b3f2055560ce ""
  "/usr/share/texlive/texmf-dist/tex/generic/pgf/basiclayer/pgfcoreobjects.code.tex" 1480098816 2631 7eefa6cdbefd8d4e2bad7262cf1094cd ""
  "/usr/share/texlive/texmf-dist/tex/generic/pgf/basiclayer/pgfcorepathconstruct.code.tex" 1480098816 43477 81143b33d9ebafdeead07ede13372427 ""
  "/usr/share/texlive/texmf-dist/tex/generic/pgf/basiclayer/pgfcorepathprocessing.code.tex" 1480098816 17436 8d99d4113be311daf23deff86991ee7d ""
  "/usr/share/texlive/texmf-dist/tex/generic/pgf/basiclayer/pgfcorepathusage.code.tex" 1480098816 20772 c57e34db4aa7b1da013169d04b743eac ""
  "/usr/share/texlive/texmf-dist/tex/generic/pgf/basiclayer/pgfcorepatterns.code.tex" 1480098816 9641 711f0edc22c180a5caf168b6e8970057 ""
  "/usr/share/texlive/texmf-dist/tex/generic/pgf/basiclayer/pgfcorepoints.code.tex" 1480098816 34516 658a71478d21df554bce9d9cd436203a ""
  "/usr/share/texlive/texmf-dist/tex/generic/pgf/basiclayer/pgfcorequick.code.tex" 1480098816 3052 e5672c657232fd63b0a9853b0746297c ""
  "/usr/share/texlive/texmf-dist/tex/generic/pgf/basiclayer/pgfcorescopes.code.tex" 1480098816 16669 4ec6e40088fc6de6334b443fe2dc59f0 ""
  "/usr/share/texlive/texmf-dist/tex/generic/pgf/basiclayer/pgfcoreshade.code.tex" 1480098816 21541 4cd19f8ff7dd74d5aa7d803a6397af84 ""
  "/usr/share/texlive/texmf-dist/tex/generic/pgf/basiclayer/pgfcoretransformations.code.tex" 1480098816 19998 d77fef95c7369827753d17fd11be19c4 ""
  "/usr/share/texlive/texmf-dist/tex/generic/pgf/basiclayer/pgfcoretransparency.code.tex" 1480098816 8943 2e2495b057f8f0035b5568394d489963 ""
  "/usr/share/texlive/texmf-dist/tex/generic/pgf/math/pgfmath.code.tex" 1480098816 454 9e9e7c99f4da4f41698be21eaef4938e ""
  "/usr/share/texlive/texmf-dist/tex/generic/pgf/math/pgfmathcalc.code.tex" 1480098816 13416 940ea6971d7a65dc440d3479939c66ae ""
  "/usr/share/texlive/texmf-dist/tex/generic/pgf/math/pgfmathfloat.code.tex" 1480098816 94097 62ac62cda46eb715560dc27f9ed6e8b1 ""
  "/usr/share/texlive/texmf-dist/tex/generic/pgf/math/pgfmathfunctions.base.code.tex" 1480098816 9375 5adc70f722abd29fc250d59e0694b548 ""
  "/usr/share/texlive/texmf-dist/tex/generic/pgf/math/pgfmathfunctions.basic.code.tex" 1480098816 22069 7c21c42b15718ce922f36235be360490 ""
  "/usr/share/texlive/texmf-dist/tex/generic/pgf/math/pgfmathfunctions.code.tex" 1480098816 8210 a7be5b52ef3d2c087b7dc3d52898b67e ""
  "/usr/share/texlive/texmf-dist/tex/generic/pgf/math/pgfmathfunctions.comparison.code.tex" 1480098816 3534 c7f28fbac13616513e513efe93b8569b ""
  "/usr/share/texlive/texmf-dist/tex/generic/pgf/math/pgfmathfunctions.integerarithmetics.code.tex" 1480098816 3167 7c9394e79aac27db96a92f9b2792b858 ""
  "/usr/share/texlive/texmf-dist/tex/generic/pgf/math/pgfmathfunctions.misc.code.tex" 1480098816 9289 261407875b9dbb0194691c3eb893610f ""
  "/usr/share/texlive/texmf-dist/tex/generic/pgf/math/pgfmathfunctions.random.code.tex" 1480098816 7078 946ddf4a7e57219b6afdbad98eb6731b ""
  "/usr/share/texlive/texmf-dist/tex/generic/pgf/math/pgfmathfunctions.round.code.tex" 1480098816 2688 139c6abc86761a6190c2f4bef5d752be ""
  "/usr/share/texlive/texmf-dist/tex/generic/pgf/math/pgfmathfunctions.trigonometric.code.tex" 1480098816 92284 dcf023dbaa84e6c50e11c2f79fe8cfa6 ""
  "/usr/share/texlive/texmf-dist/tex/generic/pgf/math/pgfmathparser.code.tex" 1480098816 35430 046e15fbb65e74d8f0e7945f99741fdb ""
  "/usr/share/texlive/texmf-dist/tex/generic/pgf/math/pgfmathutil.code.tex" 1480098816 7099 f44d505bae6c7c2b933cdd63441db4b9 ""
  "/usr/share/texlive/texmf-dist/tex/generic/pgf/systemlayer/pgf.cfg" 1480098816 978 15af626ebd3d4d790aac19170dac04f2 ""
  "/usr/share/texlive/texmf-dist/tex/generic/pgf/systemlayer/pgfsys-common-pdf.def" 1480098816 5437 d91f93ed61ecdc57e119849b2d784a0b ""
  "/usr/share/texlive/texmf-dist/tex/generic/pgf/systemlayer/pgfsys-luatex.def" 1480098816 14274 79db5dec277817e8688d603ca0741ba3 ""
  "/usr/share/texlive/texmf-dist/tex/generic/pgf/systemlayer/pgfsys.code.tex" 1480098816 35113 2ccc50c1c9573e4bac9230d030f9c67c ""
  "/usr/share/texlive/texmf-dist/tex/generic/pgf/systemlayer/pgfsysprotocol.code.tex" 1480098816 1983 b5994ebbcee17f1ba3d29bb1bd696fcf ""
  "/usr/share/texlive/texmf-dist/tex/generic/pgf/systemlayer/pgfsyssoftpath.code.tex" 1480098816 7881 d459d6057e13d10ce7a227ae44b7295e ""
  "/usr/share/texlive/texmf-dist/tex/generic/pgf/utilities/pgfkeys.code.tex" 1480098816 36194 e194ef4e0b396b531a3891feb4b1cc22 ""
  "/usr/share/texlive/texmf-dist/tex/generic/pgf/utilities/pgfkeysfiltered.code.tex" 1480098816 33377 af391d6ad1bfcbe2278e191f48e43ba8 ""
  "/usr/share/texlive/texmf-dist/tex/generic/pgf/utilities/pgfrcs.code.tex" 1480098816 2536 a3b0529d815a2759ba157b56610a6377 ""
  "/usr/share/texlive/texmf-dist/tex/generic/pgf/utilities/pgfutil-common-lists.tex" 1480098816 6833 114eda2cf1d348e0e7e477a1a4dc1941 ""
  "/usr/share/texlive/texmf-dist/tex/generic/pgf/utilities/pgfutil-common.tex" 1480098816 16501 ab0135765e27b6b8dae047831fe84818 ""
  "/usr/share/texlive/texmf-dist/tex/generic/pgf/utilities/pgfutil-latex.def" 1480098816 5544 294baac9629ba59f675b1f2027ad7136 ""
  "/usr/share/texlive/texmf-dist/tex/latex/amscls/amsthm.sty" 1513722769 12604 3dec726c041422879dc3268237f09026 ""
  "/usr/share/texlive/texmf-dist/tex/latex/amsfonts/amsfonts.sty" 1480098820 5949 3f3fd50a8cc94c3d4cbf4fc66cd3df1c ""
  "/usr/share/texlive/texmf-dist/tex/latex/amsfonts/amssymb.sty" 1480098820 13829 94730e64147574077f8ecfea9bb69af4 ""
  "/usr/share/texlive/texmf-dist/tex/latex/amsmath/amsbsy.sty" 1480098820 2210 5c54ab129b848a5071554186d0168766 ""
  "/usr/share/texlive/texmf-dist/tex/latex/amsmath/amsgen.sty" 1480098820 4160 c115536cf8d4ff25aa8c1c9bc4ecb79a ""
  "/usr/share/texlive/texmf-dist/tex/latex/amsmath/amsmath.sty" 1504905757 84352 897a476d96a0681047a5b0f91178a3d2 ""
  "/usr/share/texlive/texmf-dist/tex/latex/amsmath/amsopn.sty" 1480098820 4115 318a66090112f3aa3f415aeb6fe8540f ""
  "/usr/share/texlive/texmf-dist/tex/latex/amsmath/amstext.sty" 1480098820 2431 fe3078ec12fc30287f568596f8e0b948 ""
  "/usr/share/texlive/texmf-dist/tex/latex/base/size11.clo" 1480098821 8308 f91506bb4df6d8527331f7bbeaf0e63c ""
  "/usr/share/texlive/texmf-dist/tex/latex/beamer/beamer.cls" 1519256047 11573 6ad13c4ed41dfa776135546b18cfbe1a ""
  "/usr/share/texlive/texmf-dist/tex/latex/beamer/beamerbaseauxtemplates.sty" 1519256047 22666 933c376468a06913d7754fc13742473c ""
  "/usr/share/texlive/texmf-dist/tex/latex/beamer/beamerbaseboxes.sty" 1483401677 8073 df5c1784673e960a504a7c1960c767d3 ""
  "/usr/share/texlive/texmf-dist/tex/latex/beamer/beamerbasecolor.sty" 1519256047 13293 4e137a4941dec574b49585c13053f681 ""
  "/usr/share/texlive/texmf-dist/tex/latex/beamer/beamerbasecompatibility.sty" 1519256047 24410 c4c8374860ec8dd144c9e52b9a4be8f6 ""
  "/usr/share/texlive/texmf-dist/tex/latex/beamer/beamerbasedecode.sty" 1519256047 9223 3dcf2e3028325ba361c1b99d7205fc93 ""
  "/usr/share/texlive/texmf-dist/tex/latex/beamer/beamerbasefont.sty" 1519256047 13464 29d78002042e084b82f7d34ed67391d9 ""
  "/usr/share/texlive/texmf-dist/tex/latex/beamer/beamerbaseframe.sty" 1519256047 24785 78a2d764d246c48203b98fd9602a30cf ""
  "/usr/share/texlive/texmf-dist/tex/latex/beamer/beamerbaseframecomponents.sty" 1519256047 11898 264f0ae03dbfa791611c1821393bc0b9 ""
  "/usr/share/texlive/texmf-dist/tex/latex/beamer/beamerbaseframesize.sty" 1483401677 8724 3da64c74fd1533e88179d5635b7ae6fe ""
  "/usr/share/texlive/texmf-dist/tex/latex/beamer/beamerbaselocalstructure.sty" 1519256047 16585 b2950fd7e085cc3b1afaf3170f3e21fc ""
  "/usr/share/texlive/texmf-dist/tex/latex/beamer/beamerbasemisc.sty" 1519256047 8313 358d4bb860bd9098eb24099f36b27af1 ""
  "/usr/share/texlive/texmf-dist/tex/latex/beamer/beamerbasemodes.sty" 1519256047 7493 bfb4c812c60867c1a9060a306fdd3434 ""
  "/usr/share/texlive/texmf-dist/tex/latex/beamer/beamerbasenavigation.sty" 1519256047 29020 6cae2187b2d2bc4f39b6bb5bddbcf031 ""
  "/usr/share/texlive/texmf-dist/tex/latex/beamer/beamerbasenotes.sty" 1519256047 5347 c13cef7a309d4719e32c79977ffb972f ""
  "/usr/share/texlive/texmf-dist/tex/latex/beamer/beamerbaseoptions.sty" 1500070590 1753 c10ec1df45e4b4c7ee05e306d23f95d7 ""
  "/usr/share/texlive/texmf-dist/tex/latex/beamer/beamerbaseoverlay.sty" 1519256047 27030 515a945e010680cce3b317f59eaaf081 ""
  "/usr/share/texlive/texmf-dist/tex/latex/beamer/beamerbaserequires.sty" 1500070590 1593 48c3729494fa250d34789fd6af677f99 ""
  "/usr/share/texlive/texmf-dist/tex/latex/beamer/beamerbasesection.sty" 1519256047 13467 0173b5c7addf3966d285337d930a310a ""
  "/usr/share/texlive/texmf-dist/tex/latex/beamer/beamerbasetemplates.sty" 1500070590 5753 fbf8c2f7c7d6d5d1d2b900c353f094e8 ""
  "/usr/share/texlive/texmf-dist/tex/latex/beamer/beamerbasethemes.sty" 1500070590 1140 cdaff8d445bd2a4e7afdec5190a758c0 ""
  "/usr/share/texlive/texmf-dist/tex/latex/beamer/beamerbasetheorems.sty" 1500070590 4548 cdde9ae4b614ce5ea4cf7a232ceeb6a8 ""
  "/usr/share/texlive/texmf-dist/tex/latex/beamer/beamerbasetitle.sty" 1519256047 5373 858be7ef52ed1687cd0388aded0480c3 ""
  "/usr/share/texlive/texmf-dist/tex/latex/beamer/beamerbasetoc.sty" 1519256047 7494 ed91d358cf202c733488dccab65fec3b ""
  "/usr/share/texlive/texmf-dist/tex/latex/beamer/beamerbasetranslator.sty" 1483401677 637 685bd3d40aca2fa87965a39bc31aca7f ""
  "/usr/share/texlive/texmf-dist/tex/latex/beamer/beamerbasetwoscreens.sty" 1500070590 1408 93bead6e76a275002dbb9a319dc984d0 ""
  "/usr/share/texlive/texmf-dist/tex/latex/beamer/beamerbaseverbatim.sty" 1519256047 4026 1ba2c6a2acf275d63cb85d60d8597fe8 ""
  "/usr/share/texlive/texmf-dist/tex/latex/beamer/beamercolorthemedefault.sty" 1519256047 7113 9e704ecfdbef4fb8bd9e18751e4051a9 ""
  "/usr/share/texlive/texmf-dist/tex/latex/beamer/beamerfontthemedefault.sty" 1519256047 4236 21e590075d6781cc58fee783316ee268 ""
  "/usr/share/texlive/texmf-dist/tex/latex/beamer/beamericonarticle.20.pdf" 1513642141 2958 4e0c4a6e994e5c4d9da11c477e927f0f ""
  "/usr/share/texlive/texmf-dist/tex/latex/beamer/beamericonarticle.pdf" 1513642141 2936 6cc3ef0682cbb62be8aa1b19f0a84ed6 ""
  "/usr/share/texlive/texmf-dist/tex/latex/beamer/beamericonbook.20.pdf" 1513642141 2734 0bcf939051dd2a936cdfe5982f7c233b ""
  "/usr/share/texlive/texmf-dist/tex/latex/beamer/beamericonbook.pdf" 1513642141 2667 7624351b441ffe4bd2d14e08fbcf063d ""
  "/usr/share/texlive/texmf-dist/tex/latex/beamer/beamericononline.20.pdf" 1513642141 24451 195d2c060e84f339954bc6d9b52131d7 ""
  "/usr/share/texlive/texmf-dist/tex/latex/beamer/beamericononline.pdf" 1513642141 24611 df07010540266b2b205b492a4d02e7e1 ""
  "/usr/share/texlive/texmf-dist/tex/latex/beamer/beamerinnerthemedefault.sty" 1519256047 13031 a33a15e4b12bfa976c11f59131636ea9 ""
  "/usr/share/texlive/texmf-dist/tex/latex/beamer/beamerouterthemedefault.sty" 1519256047 6584 a2b5a29622807666ab66e073d385a2b7 ""
  "/usr/share/texlive/texmf-dist/tex/latex/beamer/beamerthemedefault.sty" 1513642141 355 75c98e7b8f427eb7c625ed391b140c5b ""
  "/usr/share/texlive/texmf-dist/tex/latex/etoolbox/etoolbox.sty" 1518389458 43862 d90315ae4a46ef887a38b4ccba021f91 ""
  "/usr/share/texlive/texmf-dist/tex/latex/filehook/filehook.sty" 1480098828 12104 88bda8c1ae09e2b6dc29ed32629eafa1 ""
  "/usr/share/texlive/texmf-dist/tex/latex/geometry/geometry.sty" 1480098829 40502 e003406220954b0716679d7928aedd8a ""
  "/usr/share/texlive/texmf-dist/tex/latex/graphics-cfg/color.cfg" 1480098830 1213 620bba36b25224fa9b7e1ccb4ecb76fd ""
  "/usr/share/texlive/texmf-dist/tex/latex/graphics-cfg/graphics.cfg" 1480098830 1224 978390e9c2234eab29404bc21b268d1e ""
  "/usr/share/texlive/texmf-dist/tex/latex/graphics-def/luatex.def" 1515537368 17337 8b3095c14728a2bab49dc6531392a3c0 ""
  "/usr/share/texlive/texmf-dist/tex/latex/graphics/graphics.sty" 1498427532 15275 7d676729b1bedd3e7f3c6717affb366c ""
  "/usr/share/texlive/texmf-dist/tex/latex/graphics/graphicx.sty" 1498427532 9066 649f2ccf62888e3d8c3e57256b70b8e1 ""
  "/usr/share/texlive/texmf-dist/tex/latex/graphics/keyval.sty" 1480098830 2594 d18d5e19aa8239cf867fa670c556d2e9 ""
  "/usr/share/texlive/texmf-dist/tex/latex/graphics/trig.sty" 1480098830 3980 0a268fbfda01e381fa95821ab13b6aee ""
  "/usr/share/texlive/texmf-dist/tex/latex/hyperref/hluatex.def" 1518041854 51422 1eb682e2d14f55fb14545444dffc523b ""
  "/usr/share/texlive/texmf-dist/tex/latex/hyperref/hyperref.sty" 1518041854 234088 2c849389d62d41c593d9f5176c4116ab ""
  "/usr/share/texlive/texmf-dist/tex/latex/hyperref/nameref.sty" 1480098831 12949 81e4e808884a8f0e276b69410e234656 ""
  "/usr/share/texlive/texmf-dist/tex/latex/hyperref/pd1enc.def" 1518041854 14098 4e70bf396c7c265bd8b0e5cab3fd3d4d ""
  "/usr/share/texlive/texmf-dist/tex/latex/latexconfig/epstopdf-sys.cfg" 1480098833 678 4792914a8f45be57bb98413425e4c7af ""
  "/usr/share/texlive/texmf-dist/tex/latex/latexconfig/hyperref.cfg" 1480098833 235 6031e5765137be07eed51a510b2b8fb7 ""
  "/usr/share/texlive/texmf-dist/tex/latex/ms/everyshi.sty" 1480098835 3878 6aa7c08ff2621006e0603349e40a30a8 ""
  "/usr/share/texlive/texmf-dist/tex/latex/oberdiek/auxhook.sty" 1480098836 3834 4363110eb0ef1eb2b71c8fcbcdb6c357 ""
  "/usr/share/texlive/texmf-dist/tex/latex/oberdiek/epstopdf-base.sty" 1480098836 12095 5337833c991d80788a43d3ce26bd1c46 ""
  "/usr/share/texlive/texmf-dist/tex/latex/oberdiek/grfext.sty" 1480098836 7075 2fe3d848bba95f139de11ded085e74aa ""
  "/usr/share/texlive/texmf-dist/tex/latex/oberdiek/kvoptions.sty" 1480098836 22417 1d9df1eb66848aa31b18a593099cf45c ""
  "/usr/share/texlive/texmf-dist/tex/latex/oberdiek/rerunfilecheck.sty" 1480098836 9581 023642318cef9f4677efe364de1e2a27 ""
  "/usr/share/texlive/texmf-dist/tex/latex/pgf/basiclayer/pgfcore.sty" 1480098837 410 5bf12ea7330e5f12c445332a4fe9a263 ""
  "/usr/share/texlive/texmf-dist/tex/latex/pgf/systemlayer/pgfsys.sty" 1480098837 443 0b2e781830192df35c0fd357cf13e26e ""
  "/usr/share/texlive/texmf-dist/tex/latex/pgf/utilities/pgfrcs.sty" 1480098837 325 2bcd023400636339210573e2b3ee298b ""
  "/usr/share/texlive/texmf-dist/tex/latex/pgf/utilities/xxcolor.sty" 1480098837 2267 e82edfd18fbf4047c6f20ed9467f27db ""
  "/usr/share/texlive/texmf-dist/tex/latex/sansmathaccent/sansmathaccent.sty" 1480098838 4280 a62885a2f2d4221d634eb6cd5559e518 ""
  "/usr/share/texlive/texmf-dist/tex/latex/tools/enumerate.sty" 1480098841 3467 d39e40f25d5fd2b3b49a58d155063dd6 ""
  "/usr/share/texlive/texmf-dist/tex/latex/translator/translator-basic-dictionary-English.dict" 1512078926 3435 0a4d096dde3f8fe682c2aedd33b8137d ""
  "/usr/share/texlive/texmf-dist/tex/latex/translator/translator-bibliography-dictionary-English.dict" 1512078926 903 c6d17f0656e9e1abb172b4faebabd617 ""
  "/usr/share/texlive/texmf-dist/tex/latex/translator/translator-environment-dictionary-English.dict" 1512078926 433 bfb8d1c2c020defd2de8e5c276710094 ""
  "/usr/share/texlive/texmf-dist/tex/latex/translator/translator-months-dictionary-English.dict" 1512078926 1337 9a6c05e8f0c8b3c5f27cbd0e455cf475 ""
  "/usr/share/texlive/texmf-dist/tex/latex/translator/translator-numbers-dictionary-English.dict" 1512078926 1638 2bf1a1dea98f8a4d28033fce76e9cc67 ""
  "/usr/share/texlive/texmf-dist/tex/latex/translator/translator-theorem-dictionary-English.dict" 1512078926 3523 1f9d9b91f7d78b73e74c7e97bca30fb0 ""
  "/usr/share/texlive/texmf-dist/tex/latex/translator/translator.sty" 1515274380 8690 269ca424c32d015df5d558ef9752619d ""
  "/usr/share/texlive/texmf-dist/tex/latex/url/url.sty" 1480098842 12796 8edb7d69a20b857904dd0ea757c14ec9 ""
  "/usr/share/texlive/texmf-dist/tex/latex/xcolor/xcolor.sty" 1480098843 55589 34128738f682d033422ca125f82e5d62 ""
  "/usr/share/texlive/texmf-dist/tex/luatex/lualibs/lualibs-basic.lua" 1486339267 2685 01cf68c81eccdf10366f3f84158d2bc8 ""
  "/usr/share/texlive/texmf-dist/tex/luatex/lualibs/lualibs-boolean.lua" 1480098844 1850 abe28515dd33e8f6c416c09bca351cf8 ""
  "/usr/share/texlive/texmf-dist/tex/luatex/lualibs/lualibs-compat.lua" 1480098844 603 398583cb619d20952d67edcedae41608 ""
  "/usr/share/texlive/texmf-dist/tex/luatex/lualibs/lualibs-dir.lua" 1486339267 17703 9ea92204a66366c1e44e5616f84f46a2 ""
  "/usr/share/texlive/texmf-dist/tex/luatex/lualibs/lualibs-extended.lua" 1486339267 4826 f09108bac11f85bb9fa04d868d666e63 ""
  "/usr/share/texlive/texmf-dist/tex/luatex/lualibs/lualibs-file.lua" 1486339267 20997 32d9ba0a5cdd3509a3847bb050bfb800 ""
  "/usr/share/texlive/texmf-dist/tex/luatex/lualibs/lualibs-function.lua" 1480098844 361 a7e68a9703c35238729da41a474e951b ""
  "/usr/share/texlive/texmf-dist/tex/luatex/lualibs/lualibs-gzip.lua" 1480098844 1211 9cdb8f316bdef565fb312b1099590701 ""
  "/usr/share/texlive/texmf-dist/tex/luatex/lualibs/lualibs-io.lua" 1486339267 10014 ee77e357f5965196f9559b8fcccc6e71 ""
  "/usr/share/texlive/texmf-dist/tex/luatex/lualibs/lualibs-lpeg.lua" 1480098845 37012 93b90b22d7d3600ddd9def9f3ad9a7bb ""
  "/usr/share/texlive/texmf-dist/tex/luatex/lualibs/lualibs-lua.lua" 1486339267 4535 5466b2db6d8cc3b9786a398bb4230ea1 ""
  "/usr/share/texlive/texmf-dist/tex/luatex/lualibs/lualibs-math.lua" 1480098845 974 51275e81c652e3fbd7d02b1c383d3049 ""
  "/usr/share/texlive/texmf-dist/tex/luatex/lualibs/lualibs-md5.lua" 1480098845 3248 8cad752e187261eabf9cde462a1eef81 ""
  "/usr/share/texlive/texmf-dist/tex/luatex/lualibs/lualibs-number.lua" 1486339267 5358 bacbf8f2ff767e317d6ac2ba5930ec6a ""
  "/usr/share/texlive/texmf-dist/tex/luatex/lualibs/lualibs-os.lua" 1480098845 15832 a5a96e495876a7ccea203ac3cdcac40b ""
  "/usr/share/texlive/texmf-dist/tex/luatex/lualibs/lualibs-package.lua" 1480098845 10587 ecf99777107151998d886199ef5589dd ""
  "/usr/share/texlive/texmf-dist/tex/luatex/lualibs/lualibs-set.lua" 1480098845 1923 17868172ce396e1c5d0e9a672b8bdcb9 ""
  "/usr/share/texlive/texmf-dist/tex/luatex/lualibs/lualibs-string.lua" 1486339267 5863 2ca01eeb225c09e73ff4f3a2d101827a ""
  "/usr/share/texlive/texmf-dist/tex/luatex/lualibs/lualibs-table.lua" 1486339267 37480 92978e5ea9ca13dae04fb606f5be4a1c ""
  "/usr/share/texlive/texmf-dist/tex/luatex/lualibs/lualibs-trac-inf.lua" 1486339267 6844 aeb4a209d048a47dc0526a1915da2258 ""
  "/usr/share/texlive/texmf-dist/tex/luatex/lualibs/lualibs-unicode.lua" 1480098845 37427 eb7ac141175e74f69b1f303064ed91f8 ""
  "/usr/share/texlive/texmf-dist/tex/luatex/lualibs/lualibs-url.lua" 1480098845 12531 555c5d1e1134654b5e5a679150cf11d2 ""
  "/usr/share/texlive/texmf-dist/tex/luatex/lualibs/lualibs-util-deb.lua" 1480098845 3898 dedc408152fed20d666d41b93124de05 ""
  "/usr/share/texlive/texmf-dist/tex/luatex/lualibs/lualibs-util-dim.lua" 1480098845 13522 456eee0716ac9758c73a82b638b97ef4 ""
  "/usr/share/texlive/texmf-dist/tex/luatex/lualibs/lualibs-util-fil.lua" 1486339267 5548 0573e91847e722ffe0fcdb465ba89e6b ""
  "/usr/share/texlive/texmf-dist/tex/luatex/lualibs/lualibs-util-jsn.lua" 1486339267 5291 07fff8fbc3b6542771b6f5ee9ce8c8c3 ""
  "/usr/share/texlive/texmf-dist/tex/luatex/lualibs/lualibs-util-lua.lua" 1486339267 5396 03f3d11a20846a41f46e89c4aebb457d ""
  "/usr/share/texlive/texmf-dist/tex/luatex/lualibs/lualibs-util-prs.lua" 1486339267 22883 9246f0f89dc599d472ce1b0b5ee9baee ""
  "/usr/share/texlive/texmf-dist/tex/luatex/lualibs/lualibs-util-sta.lua" 1480098845 9178 4840e537d4ecc144f7058d768e93715b ""
  "/usr/share/texlive/texmf-dist/tex/luatex/lualibs/lualibs-util-sto.lua" 1480098845 3926 bea61790df64287215ffa7dd1759a63f ""
  "/usr/share/texlive/texmf-dist/tex/luatex/lualibs/lualibs-util-str.lua" 1486339267 35499 513836cfea6a8027c1451a95bc74649f ""
  "/usr/share/texlive/texmf-dist/tex/luatex/lualibs/lualibs-util-tab.lua" 1486339267 28471 cb1ae792cb08c524e4bc09b4f005f7f8 ""
  "/usr/share/texlive/texmf-dist/tex/luatex/lualibs/lualibs-util-tpl.lua" 1480098845 7100 ccfb5023bc761673396964848d85b5e2 ""
  "/usr/share/texlive/texmf-dist/tex/luatex/luaotfload/luaotfload-characters.lua" 1485820867 1548690 99578c3eff8b68cae3da45a4a7cbfcf2 ""
  "/var/lib/texmf/web2c/luatex/lualatex.fmt" 1570270073 1349093 93d64a49a91e8f88f31d6071f16634b4 ""
  "beamericonarticle.20.pdf" 0 -1 0 ""
  "beamericonarticle.pdf" 0 -1 0 ""
  "beamericonbook.20.pdf" 0 -1 0 ""
  "beamericonbook.pdf" 0 -1 0 ""
  "beamericononline.20.pdf" 0 -1 0 ""
  "beamericononline.pdf" 0 -1 0 ""
  "img/nk_defn.png" 1625654357 113872 467c4b1b900bcd6c10af55edc98b992a ""
  "mwe.aux" 1625656513 1095 be14396f06575a3b41c0770639158b4e ""
  "mwe.nav" 1625656513 307 9e520c26371a1250ff9fc1fe87f9c655 ""
  "mwe.out" 1625656513 0 d41d8cd98f00b204e9800998ecf8427e ""
  "mwe.tex" 1625656512 840 22614df61e8f71d5f284098fcf5bb868 ""
  (generated)
  "mwe.log"
  "mwe.pdf"
  "mwe.snm"
  "mwe.toc"
  "mwe.aux"
  "mwe.nav"
  "mwe.out"
